{
  "text": {
    "0": "Birthday",
    "1": "Today",
    "2": "Physical",
    "3": "Emocional",
    "4": "Intelectual",
    "5": "http://poplauki.eu/bio/",
    "6": "Overvall"
  },
  "montharray": {
    "0": " ",
    "1": "January",
    "2": "February",
    "3": "March",
    "4": "April",
    "5": "May",
    "6": "June",
    "7": "July",
    "8": "August",
    "9": "September",
    "10": "October",
    "11": "November",
    "12": "December"
  },
  "mas_lang": {
    "keyword": "Время жизни,дни потраченные на сон,еду,учёбу,работу,круглая дата,дни жизни,биоритмы, интелектуальный, ритмы, физический, эмоциональный,kiek pralesta dienu miegant,valgant,besimokant, sportojant,jubelejines datos,gynenimo dienos,bioritmai, inteketualinis ritmas,fizinis ritmas,emocinis ritmas,bioritmo progonozė,how much days spent to sleep,food,sport,study,celbrate dates,life days,biorythms, intelektual rythm,physical rythm,emocional rythm,ile spedzal czasu spac,Ile spedzal czasu jedzac,oblic biorytm ,moj biorytm,biorythm",
    "title": "Life biorythms",
    "author": "Poplavskij Vladimir",
    "copyr": "Poplavskij Vladimir",
    "descr": "Nearest 20 days calculate biorythms.Lifedays calculate.",
    "lang_d": "en",
    "desrc2": "This service can count the number of days lived. Draw a picture of biorhythms for today and the next 20 days. Do not need to register. Service is free. You can get a direct link to your page with biorhythms. Additionally, explains the value of names (Cyrillic writing).",
    "welcome": "Welcome!",
    "next": "<div class=&amp;nextclick&amp; onclick=&amp;location.href='next.php'&amp;>Next more about yuor days, birthday number and biorythms...<&rslash;div> ",
    "today": "Today  : ",
    "calculate": "Calculate ",
    "again": "<div class=&amp;againclick&amp; onclick=&amp;location.href='logout.php'&amp;>Calculate again<&rslash;div>",
    "again2": "<div class=&amp;againclick&amp; onclick=&amp;location.href='index.php'&amp;>Calculate again<&rslash;div>",
    "your_days": "Your life days ",
    "your_year": " old",
    "name": "Name:",
    "day_of_birth": "Your birth date : ",
    "wrong": "Bad format of birth day.",
    "year": "Year",
    "month": "Month",
    "day": "Day",
    "phrase": "Please,fill all fields.  Input your name are`t exatly.   ",
    "link1": "Link to page without input date",
    "main_page": "Main page of Vladimir Poplavskij",
    "days_wr": " days",
    "with_name": "With name",
    "without_name": "Without name",
    "aforizms": "Aphorizm",
    "three_aforizms": "3 aphorizm",
    "value_of_birth": "Number of the dates, your, birthday ",
    "yours_bio": "Your biorythm today: ",
    "yours": "You lived ",
    "download": "Download your biorythm PNG image ",
    "thank_you": "Thank you for visiting !",
    "banner1": "Banner with transparent background and sizes 300*100  ",
    "banner1text": "Click on textarea and CTRL +C to copy code of banner ",
    "bannerdescr": "Nearest 20 days calculate biorythms.Lifedays calculate.",
    "bannerdescr2": "Nearest 100 and 1000 divided days in your biorythm.",
    "before": "will be after ",
    "imposible": "It is imposible calculate info about user. ",
    "helpshow": "Banners",
    "move": "Move",
    "helphide": "Close guide",
    "helpwrite": "",
    "show_form_again": "Show form",
    "calculate_bio": "calculate Your biorythm",
    "form_legend": "Start to known your biorythm:",
    "name_help": "Input name for say hello",
    "birthdate_help": "Enter Your birthdate",
    "loading": "Loading...",
    "copyright": "&copy; poplauki.eu 2016",
    "birthdate_sum_title": "Birthdate number sum",
    "birthdate_sum_description": "sum birthdate and describe it",
    "empty_warning_title": "Sorry !",
    "empty_warning_description": "but form sended empty. Try one more time",
    "wrong_warning_title": "Oppsss",
    "wrong_warning_description": "but date sended in the field is invalid! Do not hack form - use datepicker!",
    "response_warning_title": "Nooo",
    "response_warning_description": "Server does not response. Try some time after ",
    "average_life_title": "Average life day stat",
    "average_life_description": "calculated average days spent for sleep, meal, study and etc.  ",
    "banners_title": "Biorythm banner",
    "banners_description": "biorythm banner with data to insert in the pages ",
    "name_title": "Name description",
    "name_description": "name description",
    "review": "About"
  },
  "birth_number_text": {
    "1": "<div class=&cuot;num_title&cuot;>Number 1<&rslash;div><br&rslash;>It is a symbol of his own persona, a symbol of glory and power, action and ambition. The man with the number of birthday 1, and must follow it, never changing its course and not trying to jump far ahead right away, jerk, ahead of time. He reaches new heights only direct and progressive way. Here avoid egoism and covetousness, willfulness and waywardness, careful proportion their interests with others lest they came in conflictual state otherwise can lose friends and purchase enemies. Strong number day birth 1 promises much it offers high development if follow his advice.<br&rslash;> ",
    "2": "<div class=&cuot;num_title&cuot;>Number 2<&rslash;div>As the number of days of birth 2 represents the balance in mood, behavior, actions, gentleness and tact nature, the search for compromise, smoothing sharp angles, acute problems. Internal contradictions, excessive rationality, timeless advice to friends and associates often prevent them figure out their own affairs. Number 2 - is the antithesis, balance, contrast. It is as if there is between light and darkness, good and evil, heat and cold and riches and poverty, life and death. These people need to take all the circumstances as they are, they adapt and come to terms with them. They avoid extremes any hesitation and excessive magnanimity think and care not only about other but also currently. They good designers and counselors but not performers. They need sponsors, partners, employees, but their selection let the mind dominates the senses.<br&rslash;> ",
    "3": "<div class=&cuot;num_title&cuot;>Number 3<&rslash;div>As the number of the birth of 3 - faster than all other numbers - opens its features, especially a sharp and intuitive mind, the ability to quickly and easily acquire knowledge, often in a very early age. Talented people capable of, he alone can not fully use their talents as well as to achieve the goal will be to choose easier ways and means. He likes to adapt to anything that promises immediate benefits. Life as such he prefers to be seen not so serious. He needs interesting people, easy, pleasant surroundings, constant entertainment. He lives only one day. Its future is not an issue. When distinguished startup he can far go since doubts reliance, competent in work. However natural impatience aspiration to easy and uncomplicated activities as temporary quick success therein may hinder him navigate another path with higher capabilities but where assumed prospective planning.<br&rslash;> ",
    "4": "<div class=&cuot;num_title&cuot;>Number 4<&rslash;div>As the number 4 symbolizes the birth of a balanced, hardworking nature, careful to avoid risky ventures. Man is capable, with their ideas, plans, trying to understand all itself, without outside help. His motto - reliability, stability and honesty. His impossible deceive himself he must avoid delusion. If the person's goals and requirements of small and modest, the number 4 for him may become a symbol of poverty, and a symbol of defeat. But at the same time, this number gives people a solid foundation for further development of knowledge, professional skills in various specialties.<br&rslash;> ",
    "5": "<div class=&cuot;num_title&cuot;>Number 5<&rslash;div>As the number of days of birth 5 represents full of enthusiasm for nature, adventurous and risky activities. prone to everything unusual. These people are mobile, like tour and travel everywhere feel like home. They quickly and easily metabolize foreign languages tradition other peoples. Often their actions and behavior are quite suddenly and unexpectedly, with unpredictable consequences. With all the difficulties they go unscathed. In many ways, it helps in life resourcefulness and wit, their joie de vivre. Love to frequent changes prevent them appreciate the present, to see real prospects. They always fastened only forward nor see what handy.<br&rslash;> ",
    "6": "<div class=&cuot;num_title&cuot;>Number 6<&rslash;div>As the number of birthday 6 remains unsurpassed. Natura honest frank, rugged. Views - the progressive, but with the desire to create a name for themselves, gain the respect and position of others, support among friends, peace and tranquility, and improve their living conditions. They literally radiate optimism and cheerfulness, to justify the work entrusted to them or post will be honored reached, rather than attempting to tops of career and fame. In doing so, they prevent the smugness and complacency. Mask detachment causes no thereto big sympathies and gives occasion suspect therein hypocrites.<br&rslash;> ",
    "7": "<div class=&cuot;num_title&cuot;>Number 7<&rslash;div>How number birthday 7 symbolizes mystery and knowledge. Line of this inconsistency can be continued. There are personality traits as diligence and poetic soul, but with some oddities, the propensity for analytical thinking and strong intuition, imaginative, vivid, vivid imagination. With this number are born and brought up the composers and musicians, writers and poets, philosophers and hermits, philosophers and hermits. Their inspiration requires solitude and loneliness. Weaker utyanet morass of despondency and pessimism, the stronger become vivid personalities, the people of world renown.<br&rslash;> ",
    "8": "<div class=&cuot;num_title&cuot;>Number 8<&rslash;div>As the number of the birth of 8 - it's a business, enterprise, fearlessness in all aspects and areas of life, especially in commerce and industry. Just rushing forward, these people tend to successfully implement its plans and intentions, carried out their plan. It affects their will and strong character, the ability to spare neither himself nor others. A resistance, obstacles to, the opponents just whip up, increase their energy and efficiency. These people have rare executive ability, the ability to manage teams, dragging people along. This is particularly evident in the policy in the military field, in the business world, where they can be brutal and ruthless. They judge people pick yourselves friends their affluence, Status in society.<br&rslash;> ",
    "9": "<div class=&cuot;num_title&cuot;>Number 9<&rslash;div>As the number nine symbolizes the birth of a strong personality with the potential intellect, capable of high development. Here, success brings the world of art and the arts, artistic talent and creative, a creative force. To such people it is better to abandon the activities of merchants, metallurgists and the military. Their problem infrequently lies in comprehension their talents and abilities and selecting correct life path. Under this number the day of birth are born and great inventors, and discoverers of new, and musicians. All they depends abilities and desires. Both of these factors should combine to send a single goal - then success is guaranteed.<br&rslash;> ",
    "11": "<div class=&cuot;num_title&cuot;>Number 11<&rslash;div>As the number of the birth of 11 indicates to the initiative, usually absent in the vibration of the number 2, to which it contracts. And 11 enhances the resolution, the absence of 2. Otherwise, the difference between them is practically non-existent.<br&rslash;> ",
    "22": "Number 22<br&rslash;>As the number of the birth of 22 gives the basis of the number 4 stand strong tinge of mysticism, the predominance of internal over the external world, secular. What is in store for this man - good or evil, advantage and benefit, or harm - depends on his personality, the predominant qualities of character, disposition<br&rslash;>"
  }
}