{
  "text": {
    "0": "Urodziny",
    "1": "Dzisiaj",
    "2": "Fizyczny",
    "3": "Emocjonalny",
    "4": "Intelektualny",
    "5": "http://poplauki.eu/bio/",
    "6": "Biorytm ogólny"
  },
  "montharray": {
    "0": "",
    "1": "styczńia",
    "2": "lutego",
    "3": "marca",
    "4": "kwietnia",
    "5": " maja ",
    "6": " czerwca ",
    "7": " lipca ",
    "8": " sierpnia",
    "9": "września",
    "10": "października",
    "11": "listopada",
    "12": "grudnia"
  },
  "mas_lang": {
    "keyword": "Время жизни,дни потраченные на сон,еду,учёбу,работу,круглая дата,дни жизни,биоритмы, интелектуальный, ритмы, физический, эмоциональный,kiek pralesta dienu miegant,valgant,besimokant, sportojant,jubelejines datos,gynenimo dienos,bioritmai, inteketualinis ritmas,fizinis ritmas,emocinis ritmas,bioritmo progonozė,how much days spent to sleep,food,sport,study,celbrate dates,life days,biorythms, intelektual rythm,physical rythm,emocional rythm,ile spedzal czasu spac,Ile spedzal czasu jedzac,oblic biorytm ,moj biorytm,biorythm",
    "title": "Bioritmy życia",
    "author": "Poplavskij Vladimir",
    "copyr": "Poplavskij Vladimir",
    "descr": "Obliczenie biorytmu na kolejne 20 dni. Tajemnica nazwy. Dlugosc wieku.",
    "lang_d": "pl",
    "desrc2": "Usługa ta może policzyć liczbę dni żył. Narysuj obraz biorytmy na dziś i kolejne 20 dni. Nie należy się zarejestrować. Usługa jest bezpłatna. Możesz uzyskać bezpośredni link do strony z biorytmy. Ponadto, wyjaśnia wartość nazwy (pisanie cyrylica).",
    "welcome": "Witamy!",
    "next": "<div class=&amp;nextclick&amp; onclick=&amp;location.href='next.php'&amp;>Następnie, o swoim dniu, ...<&rslash;div> Pokaze obrazek biorytmu",
    "today": "Dzisiaj  : ",
    "calculate": "Obliczać",
    "again": "<div class=&amp;againclick&amp; onclick=&amp;location.href='logout.php'&amp;>Zanowo obliczać<&rslash;div>",
    "again2": "<div class=&amp;againclick&amp; onclick=&amp;location.href='index.php'&amp;>Zanowo obliczać<&rslash;div>",
    "your_days": "Twój wiek ",
    "your_year": " lat",
    "name": "Imie:",
    "day_of_birth": "Data waszego rodzenia  : ",
    "wrong": "Nieprawiedlowo wprowadzona data urodzenia .",
    "year": "Rok",
    "month": "Miesiąc",
    "day": "Dzień",
    "phrase": "Prosze wprowadzic data urodzin.  Nazwa ukazhyvat nie wymagane. ",
    "link1": "Link na strona,bez wprowadzenia dannych",
    "main_page": "Glowna strona internetowa Vladimira Poplavskogo",
    "days_wr": " dni",
    "with_name": "Z imeniem",
    "without_name": "Bez imenia",
    "aforizms": "Aforizmy ",
    "three_aforizms": "3 aforizmy",
    "value_of_birth": "Liczba daty, twój, urodziny",
    "yours_bio": "Twoj biorytm dzisiaj: ",
    "yours": "Wam jest ",
    "download": "Sciegnac obraz PNG twego biorytma ",
    "thank_you": "Dziękujemy za odwiedzenie!",
    "banner1": "Banner z przezroczystym tłem, o rozmiare 300 na 100 pikseli ",
    "banner1text": "Kliknij na pole tekstowe i CTRL+C do pobrania   ",
    "bannerdescr": "Liczenie biorytmy na kolejne 20 dni. Tajemnica nazwy. Liczba dni mieszkał.",
    "bannerdescr2": "Naiblizsze podzielne przez 100 albo 1000 dni Twego biorymu.",
    "before": "bedzie po ubiegu ",
    "imposible": "Nie jest mozliwe obliczyc biorytm ",
    "helpshow": "Zobacz banery",
    "move": "Przesunąć",
    "helphide": "Zamknij",
    "helpwrite": "",
    "show_form_again": "Otkryć formą",
    "calculate_bio": "oblicz swój biorytm",
    "form_legend": "Zacznij z wypełnenia formy:",
    "name_help": "Wprowadz swoje imie aby poznajamić się",
    "birthdate_help": "Data urodzenia",
    "loading": "Loading...",
    "copyright": "&copy; poplauki.eu 2016",
    "birthdate_sum_title": "Suma daty narodzenia",
    "birthdate_sum_description": "Oblicza suma liczb daty narodzenia i wnioskuje o Twoim chrarakteże",
    "empty_warning_title": "Sorry !",
    "empty_warning_description": "no furmulaż był wyslany pusty. Prosze poprobować znów",
    "wrong_warning_title": "Oppsss",
    "wrong_warning_description": "ale format daty jest nie wedlug wzorów! Prosze nie hackować skrypty , a używać datepicker!",
    "response_warning_title": "Nooo",
    "response_warning_description": "Server nie odpowiada. Prosze zaprobować poznej używać biorymy ",
    "average_life_title": "Statystyka o dniach życia",
    "average_life_description": "obliczona srednia dni spendzonych na sen, jedzenie, praca i dr.",
    "banners_title": "Banery",
    "banners_description": "Informacyjne obrazki z iłoscą przeżytych dni i biorytmem. Można wpięć na strona łub blog",
    "name_title": "Znaczenie imenia",
    "name_description": "znaczenie imenia",
    "review": "Opis"
  },
  "birth_number_text": {
    "1": "<div class=&cuot;num_title&cuot;>Liczba 1 <&rslash;div>Jest to symbol własnej osobowości, symbol chwały i mocy, działań i ambicji. Człowiek z liczbą urodzin 1, i musi za nim podążać, nie zmieniając jej przebieg i nie próbuje skoczyć daleko od razu, kretyn, z wyprzedzeniem. On osiąga nowe szczyty tylko bezpośrednie i stopniowo.Silny liczby urodzin obiecuje wiele, oferuje wysoko rozwiniętych, jeśli jego rad.<br&rslash;> ",
    "2": "<div class=&cuot;num_title&cuot;>Liczba 2<&rslash;div>Ponieważ liczba dni od urodzenia 2 stanowi saldo w nastroju, zachowania, działania, delikatność i takt przyrody, poszukiwanie kompromisu, wygładzania ostrych kątów, poważne problemy. sprzeczności wewnętrznej, nadmierne racjonalności, ponadczasowe rady przyjaciół i współpracowników często uniemożliwiają im dowiedzieć się własnymi sprawami.To jest tak jakby pomiędzy światłem a ciemnością, dobrem i złem, ciepła i zimna, bogactwa i ubóstwa, życia i śmierci. Ci ludzie muszą podjąć wszystkie okoliczności, ponieważ są one dostosować i pogodzić się z nimi. Powinny one unikać skrajności, wahania i nadmiernego hojność, myśleć i zadbać nie tylko o innych, ale także o sobie. Są one dobre, planistów i doradców, ale nie wykonawców. Oni potrzebują sponsorów, partnerów, pracowników, ale ich wybór niech umysł dominuje zmysłów.<br&rslash;> ",
    "3": "<div class=&cuot;num_title&cuot;>Liczba 3<&rslash;div>Ponieważ liczba narodzin 3 - szybciej niż wszystkie inne numery - otwiera swoje funkcje, w szczególności ostre i intuicyjny umysł, zdolność do szybkiego i łatwego zdobycia wiedzy, często w bardzo młodym wieku. Utalentowani ludzie byli w stanie, on sam nie może w pełni korzystać ze swoich talentów, jak również do osiągnięcia celu będzie łatwiejsze do wyboru sposobów i środków. Lubi dostosować do niczego, co obiecuje natychmiastowe korzyści. Życie jako takie woli być postrzegana nie tak poważne. On potrzebuje ciekawych ludzi, łatwe, przyjemne otoczenie, stała rozrywki. On żyje tylko jeden dzień. Jego przyszłość nie jest problemem. Z prawej start, może daleko, nie ma wątpliwości w swoje umiejętności, kompetencje w pracy. Naturalne niecierpliwość, chęć do pracy, prosta i nieskomplikowana, jako tymczasowy sukces szybkie w nim, może uniemożliwić mu udać się na inną ścieżkę, o większej pojemności, ale gdzie oczekuje długoterminowego planowania.<br&rslash;> ",
    "4": "<div class=&cuot;num_title&cuot;>Liczba 4<&rslash;div>Ponieważ liczba 4 symbolizuje narodziny zrównoważony, pracowity charakter, ostrożność, aby uniknąć ryzykownych przedsięwzięć. Człowiek jest zdolny, z ich pomysłów, planów, stara się zrozumieć wszystko sam, bez pomocy z zewnątrz. Jego motto - niezawodność, stabilność i rzetelność. On nie może oszukać i musi uniknąć oszukiwania siebie. Jeżeli osoba, celów i wymagań małych i skromne, numer 4 na niego może stać się symbolem biedy i symbol klęski.<br&rslash;> ",
    "5": "<div class=&cuot;num_title&cuot;>Liczba 5<&rslash;div>Ponieważ liczba dni od urodzenia 5 przedstawia pełen entuzjazmu dla przyrody, przygód i działania ryzykowne. podatne na wszystko niezwykłe. Ci ludzie są ruchome, jak wycieczki i podróże wszędzie czuć jak w domu. Są szybkie i łatwe do nauki języków obcych i tradycji innych narodów. Często ich działania i zachowania są dość nagle i niespodziewanie, z nieprzewidywalnymi konsekwencjami. Z wszystkich trudności, jakie go bez szwanku. Pod wieloma względami, to pomaga w życiu zaradności i sprytu, ich radość życia. Miłość na częste zmiany uniemożliwiają im docenić teraźniejszość, aby zobaczyć realne perspektywy. Oni są zawsze z niecierpliwością i nie tylko zobaczyć, co jest pod ręką.<br&rslash;> ",
    "6": "<br&rslash;>Ponieważ liczba urodzin 6 pozostaje niezrównana. Natura jest uczciwy, szczery, wiarygodne. Widok - stopniowe, ale z pragnienia, by stworzyć nazwę dla siebie, zdobyć szacunek i pozycję innymi wsparcie wśród znajomych, ciszy i spokoju, oraz poprawę ich warunków życia. Dosłownie promieniuje optymizm i radość, aby uzasadnić pracy powierzone im lub pocztą będą honorowane osiągnięte, a nie próbować szczyty kariery i sławy. W ten sposób, że uniemożliwiają one zadowolenie z siebie i samozadowolenie. Maska oddział nie powoduje ich wiele sympatii i daje podstawy do podejrzeń ich hipokrytami.<br&rslash;> ",
    "7": "<div class=&cuot;num_title&cuot;>Liczba 7<&rslash;div>Ponieważ liczba siedem symbolizuje narodziny tajemnicy, jak również wiedzy. Linia ta niespójność może być kontynuowane.Z tego numeru są urodzone i wychowane kompozytorów i muzyków, pisarzy, poetów, filozofów i pustelników, filozofów i pustelników.bagno utyanet Słabsze przygnębienia i pesymizmu, tym silniejsze stają się żywe osobowości, ludzi o światowej renomie.<br&rslash;> ",
    "8": "<div class=&cuot;num_title&cuot;>Liczba 8<&rslash;div> Jako liczba 8 urodziny - toprzedsiębiorstwo,odwaga we wszystkich sektorach i dziedzinach życia , zwłaszcza w handlu i przemyśle . Pędzi do przodu tylko , ci ludzie mają tendencję , aby skutecznie realizować swoje plany i zamiary , przeprowadzić swój plan . To wpływa na ich wolę i siłę charakteru ,zdolność do nie żal mi siebie lub innych. A bariery odporności przeciwnikom tylko Whee , zwiększyć swoją energię i wydajność . Ci ludzie rzadką umiejętność administracyjnego , umiejętność zarządzania zespołami , ciągnąc ludzi za nim. Jest to szczególnie widoczne w zakresie polityki w dziedzinie wojskowej , w świecie biznesu , gdzie mogą być okrutny i bezlitosny . Sądzić , że ludzie podniósł swoich znajomych do ich dobrobytu, pozycji w społeczeństwie .<br&rslash;>",
    "9": "<div class=&cuot;num_title&cuot;>Liczba 9<&rslash;div>Ponieważ liczba dziewięć symbolizuje narodziny silną osobowość z potencjałem intelektu, umożliwiające wysoki rozwój.Do takich osób, lepiej jest zrezygnować z działalności kupców, hutników i wojskowych. Ich problem często leży w świadomości własnych talentów i zdolności i wybrać właściwą drogę życia. W ramach tej liczby narodzin rodzą się i wielkich wynalazców i odkrywców nowych i muzyków. Wszystkie z nich zależy od zdolności i pragnienia. Oba te czynniki powinny łączyć, aby wysłać jeden cel - wtedy sukces jest gwarantowany.<br&rslash;> ",
    "11": "<div class=&cuot;num_title&cuot;>Liczba 11<&rslash;div>Ponieważ liczba narodzin 11 wskazuje, inicjatywę, zwykle występuje w wibracji liczby 2, do której umów. I 11 zwiększa rozdzielczość, brak 2. W przeciwnym wypadku różnica między nimi jest praktycznie nie istnieje.<br&rslash;> ",
    "22": "<div class=&cuot;num_title&cuot;>Liczba 22<&rslash;div>Ponieważ liczba narodzin 22 daje podstawie liczby 4 stoisko silne zabarwienie mistycyzmu, przewaga nad wewnętrznym światem zewnętrznym, świeckich. Co znajduje się w magazynie dla tego człowieka - dobra czy zła, korzyści i korzyści lub szkody - zależy od jego osobowości, dominujących cech charakteru, usposobienia<br&rslash;>"
  }
}