{
  "text": {
    "0": "День рождения",
    "1": "Сегодня",
    "2": "Физический",
    "3": "Эмоциональный",
    "4": "Интелектуальный",
    "5": "http://poplauki.eu/bio/",
    "6": "Общий биоритм"
  },
  "montharray": {
    "0": " ",
    "1": "января",
    "2": "февраля",
    "3": "марта",
    "4": "апреля",
    "5": "мая",
    "6": "июня",
    "7": "июля",
    "8": "августа",
    "9": "сентября",
    "10": "октября",
    "11": "ноября",
    "12": "декабря"
  },
  "mas_lang": {
    "keyword": "Время жизни,дни потраченные на сон,еду,учёбу,работу,круглая дата,дни жизни,биоритмы, интелектуальный, ритмы, физический, эмоциональный,kiek pralesta dienu miegant,valgant,besimokant, sportojant,jubelejines datos,gynenimo dienos,bioritmai, inteketualinis ritmas,fizinis ritmas,emocinis ritmas,bioritmo progonozė,how much days spent to sleep,food,sport,study,celbrate dates,life days,biorythms, intelektual rythm,physical rythm,emocional rythm,ile spedzal czasu spac,Ile spedzal czasu jedzac,oblic biorytm ,moj biorytm,biorythm",
    "title": "Биоритмы жизни",
    "author": "Поплавский Владимир",
    "copyr": "Поплавский Владимир",
    "descr": "Подсчёт биоритмов на ближайшие 20 дней.Тайна имени.Количество прожитых дней.",
    "lang_d": "ru",
    "desrc2": "Данный сервис может подсчитать количество прожитых дней.Нарисовать картинку биоритма на сегодняшний день и ближайшие 20 дней.Не нужно проходить регистраций. Сервис бесплатный.Можно получить прямую ссылку на свою страницу с биоритмом.Дополнительно поясняет значение имён (кириллического написания).",
    "welcome": "Добро пожаловать!",
    "next": "<div class=&amp;nextclick&amp; onclick=&amp;location.href='next.php'&amp;>Далее про Ваши дни...<&rslash;div> Покажет картинку биоритмов и значение имени.",
    "today": "Сегодня  : ",
    "calculate": "Вычислить ",
    "again": "<div class=&amp;againclick&amp; onclick=&amp;location.href='logout.php'&amp;>Заново считать<&rslash;div>",
    "again2": "<div class=&amp;againclick&amp; onclick=&amp;location.href='index.php'&amp;>Заново считать<&rslash;div>",
    "your_days": "Вы прожили ",
    "your_year": " года",
    "name": "Имя:",
    "day_of_birth": "Ваша дата рождения  : ",
    "wrong": "Неверный формат даты .",
    "year": "Год",
    "month": "Месяц",
    "day": "День",
    "phrase": "Заполните,пожайлуста,ниже приведённые поля формы.  Имя указывать не обязательно.  Поясняет значение только для русских имён. ",
    "link1": "Ссылка на страницу без ввода данных",
    "main_page": "Главная страница Поплавского Владимира",
    "with_name": "С именем ",
    "without_name": "Без имени",
    "aforizms": "Афоризм ",
    "three_aforizms": "3 новых афоризма каждый день",
    "value_of_birth": "Число даты, Вашего, рождения ",
    "yours_bio": "Ваш Биоритм на сегодня: ",
    "yours": "Вам",
    "download": "Скачать картинку биоритма ",
    "thank_you": "Спасибо за посещение !",
    "banner1": "Баннер с прозрачным фоном размером 300 на 100 пикселей  ",
    "banner1text": "Нажмите на текстовое поле , чтобы скачать ,а потом CTRL+C  ",
    "bannerdescr": "Подсчёт биоритмов на ближайшие 20 дней.Тайна имени.Количество прожитых дней.",
    "bannerdescr2": "Ближайшие кратные 100 и 1000 дате.",
    "imposible": "Не возможно отобразить. ",
    "before": "будет за ",
    "helpshow": "Показать баннеры",
    "move": "Переместить",
    "helphide": "Закрыть",
    "helpwrite": "",
    "show_form_again": "Открыть форму",
    "calculate_bio": "посчитай свой биоритм",
    "form_legend": "Начни с заполнения формы:",
    "name_help": "Введи своё имя, чтобы познакомиться",
    "birthdate_help": "Дата рождения",
    "loading": "Loading...",
    "copyright": "&copy; poplauki.eu 2016",
    "birthdate_sum_title": "Сумма даты рождения",
    "birthdate_sum_description": "Вычисляет сумму цифр даты рождения и описывает Твои характер ",
    "empty_warning_title": "Извините !",
    "empty_warning_description": "но данные в форме не отправились. Попробуйте ещё раз",
    "wrong_warning_title": "Уппссс",
    "wrong_warning_description": "данные из поля даты не соответсвуют формату! Не хакайте - используйте datepicker!",
    "response_warning_title": "Нееет",
    "response_warning_description": "Сервер не отвечает. Попробуйте использовать биоритмы немного позже  ",
    "average_life_title": "Статистика по дням жизни",
    "average_life_description": "вычисляется среднее по прожитым дням - сколько спали, ели , работали и т.д.",
    "banners_title": "Баннера",
    "banners_description": "Информационные баннера по прожитым дням и биоритмам. Для установке на сайтах и блогах",
    "name_title": "Значение имени",
    "name_description": "значение имени",
    "review": "Описание"
  },
  "birth_number_text": {
    "1": "<div class=&cuot;num_title&cuot;>Число 1 <&rslash;div>Это символ собственной персоны, символ славы и могущества, действия и честолюбия. Человек, с числом дня рождения 1, должен и следовать ему, никогда не меняя свой курс и не пытаясь прыгнуть далеко вперед сразу же, рывком, раньше времени. Он достигнет новых высот только прямым и прогрессивным путем. Здесь следует избегать эгоизма и корыстолюбия, своеволия и своенравия, соблюдать осторожность, соразмерять свои интересы с интересами других людей, чтобы они не пришли в конфликтное состояние, иначе можно растерять друзей и приобрести врагов. Сильное число дня рождения 1 обещает многое, оно предлагает высокое развитие, если следовать его советам.<br&rslash;>",
    "2": "<div class=&cuot;num_title&cuot;>Число 2<&rslash;div>Как число дня рождения 2 символизирует равновесие в настроении, поведении, действиях, мягкость и тактичность характера, поиски компромиссов, сглаживание острых углов, острых проблем. Внутренние противоречия, излишняя рассудочность, вечные советы друзьям и окружающим часто мешают им разобраться в собственных делах. Число 2 - это антитеза, равновесие, контраст. Оно как бы находится между светом и мраком, добром и злом, теплом и холодом, богатством и нищетой, жизнью и смертью. Эти люди должны принимать все обстоятельства такими, какие они есть, к ним приспосабливаться и с ними примириться. Они должны избегать крайностей, любой неуверенности и чрезмерного великодушия, думать и заботиться не только о других, но также и о себе. Они хорошие проектировщики и советчики, но не исполнители. Им требуются соавторы, компаньоны, сотрудники, но при их выборе пусть разум властвует над чувствами.<br&rslash;>",
    "3": "<div class=&cuot;num_title&cuot;>Число 3<&rslash;div>Как число дня рождения 3 - быстрее всех остальных чисел - раскрывает свои черты, особенно острый и интуитивный разум, способность быстро и легко усваивать знания, часто в весьма раннем возрасте. Человек талантливый, способный, он в одиночку не сможет в полной мере использовать свой талант, так как для достижения цели будет выбирать более легкие пути и средства. Он любит приспособляться ко всему, что сулит непосредственную выгоду. Жизнь как таковую он предпочитает воспринимать не так уж серьезно. Ему нужны интересные люди, легкое, приятное окружение, постоянные развлечения. Он живет только одним днем. Будущее его не волнует. При верном старте он может далеко пойти, так как не сомневается в своих силах, компетентен в работе. Однако природная нетерпеливость, стремление к легкой и незатруднительной деятельности, как и временный быстрый успех в ней, могут помешать ему перейти на другой путь, с более высокими возможностями, но там, где предполагается перспективное планирование.<br&rslash;>",
    "4": "<div class=&cuot;num_title&cuot;>Число 4<&rslash;div>Как число дня рождения 4 символизирует уравновешенную, трудолюбивую натуру, осторожную, избегающую рискованных предприятий. Человек способный, со своими идеями, планами, старается разобраться во всем сам, без посторонней помощи. Его девиз - надежность, стойкость, честность. Его нельзя обманывать и сам он должен избегать самообмана. Если у данного человека и цели небольшие и требования скромные, число 4 для него может стать и символом нищеты , и символом поражения. Но в то же время это число дает людям прочную основу для дальнейшего развития знаний, профессиональных навыков в различных специальностях.<br&rslash;>",
    "5": "<div class=&cuot;num_title&cuot;>Число 5<&rslash;div>Как число дня рождения 5 символизирует исполненную энтузиазма натуру, любящую приключения и рискованные мероприятия. склонную ко всему необычному. Эти люди подвижны, любят поездки и путешествия и везде чувствуют себя как дома. Они быстро и легко усваивают иностранные языки, традиции других народов. Часто их действия и поведение оказываются совершенно внезапными и неожиданными, с непредсказуемыми последствиями. При всех затруднениях они выходят сухими из воды. Во многом им в жизни помогает находчивость и остроумие, их жизнерадостность. Любовь к частым переменам мешает им оценить настоящее, увидеть реальные перспективы. Они всегда устремлены только вперед и не видят то, что под рукой.<br&rslash;>",
    "6": "<div class=&cuot;num_title&cuot;>Число 6<&rslash;div>Как число дня рождения 6 остается непревзойденной. Натура честная, откровенная, надежная. Взгляды - прогрессивные, но с желанием создать себе имя, добиться уважения и расположения окружающих, поддерживать среди друзей мир и спокойствие, улучшить их жизненные условия. Они буквально излучают оптимизм и жизнерадостность, оправдывают доверенную им работу или должность, удовлетворяются достигнутым, не стремясь к вершинам карьеры и славы. В этом им препятствуют самодовольство и самоуспокоенность. Маска бесстрастности не вызывает к ним большой симпатии и дает повод заподозрить в них лицемеров.<br&rslash;>",
    "7": "<div class=&cuot;num_title&cuot;>Число 7<&rslash;div>Как число дня рождения 7 символизирует тайну, а также знание. Линию этой противоречивости можно продолжить. Здесь такие свойства личности, как старательность и поэтическая душа, правда, с некоторыми странностями, склонность к аналитическому мышлению и сильная интуиция, богатая фантазия, живое, яркое воображение. С этим число рождаются и воспитываются композиторы и музыканты, литераторы и поэты, философы и затворники, мыслители и отшельники. Их вдохновение требует уединения и одиночества. Более слабых утянет болото уныния и пессимизма, более сильные становятся яркими личностями, людьми с мировым именем.<br&rslash;>",
    "8": "<div class=&cuot;num_title&cuot;>Число 8<&rslash;div>Как число дня рождения 8 - это бизнес, предприимчивость, неустрашимость во всех сферах и областях жизни, особенно в коммерции и индустрии. Устремляясь только вперед, эти люди, как правило, успешно осуществляют свои планы и намерения, осуществляют задуманное. Здесь сказывается их воля и сильный характер, способность не жалеть ни себя, ни других. А сопротивление, преграды на пути, противники только подхлестывают, усиливают их энергию и работоспособность. У этих людей редкостные административные способности, умение управлять коллективами, увлекая людей за собой. Особенно это проявляется в области политики, на военном поприще, в деловом мире, где они могут быть жестоки и беспощадны. Они судят людей, подбирают себе друзей по их достатку, положению в обществе.<br&rslash;>",
    "9": "<div class=&cuot;num_title&cuot;>Число 9<&rslash;div>Как число дня рождения 9 символизирует сильную личность с потенциальным интеллектом, способную к высокому развитию. Здесь успех дарит мир искусства и художеств, артистический талант и творческая, созидательная сила. Таким людям лучше сразу отказаться от деятельности коммерсантов, металлургов, военных. Их проблема нередко заключается в осознании своих талантов и способностей и в выборе правильного жизненного пути. Под этим числом дня рождения рождаются и великие изобретатели, и открыватели нового, и музыканты. Все у них зависит от способностей и желания. Оба эти фактора следует объединить, направить на одну цель - тогда успех гарантирован.<br&rslash;>",
    "11": "<div class=&cuot;num_title&cuot;>Число 11<&rslash;div>Как число дня рождения 11 указывает на инициативу, обычно отсутствующую в вибрации числа 2, к которому оно сокращается. Также 11 усиливает решимость, отсутствующую у числа 2. В остальном разницы между ними практически не существует.<br&rslash;>",
    "22": "<div class=&cuot;num_title&cuot;>Число 22<&rslash;div>Как число дня рождения 22 придает стойкой основе числа 4 сильный оттенок мистицизма, преобладание внутреннего мира над внешним, светским. Чем это обернется для данного человека - добром или злом, пользой и выгодой или вредом, - зависит от его личности, преобладающих качеств характера, нрава<br&rslash;>"
  }
}